﻿ANAL,SRP&Ammonia.ANL,,,,,,,,,,,,,
RUN ,220302A-LQHQ120721R1.RUN,,,,,,,,,,,,,
DATE,3/2/2022,,,,,,,,,,,,,
TIME,2:35:36 PM,,,,,,,,,,,,,
OPER,,,,,,,,,,,,,,
COMM,Recalculate from Run220302A-LQHQ120721R1.run,,,,,,,,,,,,,
TYPE,,,,,,,,Real,,,Real,,,Data
CHAN,,,,,,,,1,,,2,,,2
METH,,,,,,,,SRP,,,NH4,,,Dilution
UNIT,,,,,,,,µg/L,,,µg/L,,,
Base,,,,,,,,-9572,,,-5340,,,
Gain,,,,,,,,190,,,303,,,
FIT,,,,,,,,L,,,L,,,
COEFF,,,,,,,,0.9998,,,0.9990,,,
Sample ID,Peak Number,Cup Number,Cup Type,Cup Group,,,Calibrants 1,Results 1, mAU,Calibrants 2,Results 2, mAU,,Results 2
Primer,1,921,PRIM,0,0,0,,499.23,46.53,,501.637,27.91,,1
Drift,2,921,DRIF,0,0,0,,496.879,46.32,,499.37,27.78,,1
Cal,3,921,CALB,0,0,0,500,500.146,46.61,500,496.038,27.6,,1
Cal.,4,901,CALB,0,0,0,100,95.983,10.84,100,116.314,6.76,,1
Cal.,5,902,CALB,0,0,0,50,53.654,7.09,50,52.553,3.27,,1
Cal.,6,903,CALB,0,0,0,25,29.454,4.95,25,20.695,1.52,,1
Cal.,7,904,CALB,0,0,0,10,7.832,3.04,10,6.625,0.75,,1
Cal.,8,905,CALB,0,0,0,1,-1.07,2.25,1,-6.225,0.04,,1
High,9,921,HIGH,0,1,1,,497.66,46.39,,498.599,27.74,,1
Low,10,905,LOW ,0,1,2,,-3.783,2.01,,0,0,,1
Low,11,905,LOW ,0,1,3,,-3.637,2.02,,0,0,,1
Drift,12,921,DRIF,0,0,0,,496.879,46.32,,499.37,27.78,,1
Baseline,13,0,BASL,0,0,0,,-26.476,0,,0,0,,1
76,14,1,SAMP,0,0,0,,-27.211,-0.07,,0,0,,1
18,15,2,SAMP,0,0,0,,-32.764,-0.56,,-2.728,0.23,,1
41,16,3,SAMP,0,0,0,,-33.154,-0.59,,-1.085,0.32,,1
43,17,4,SAMP,0,0,0,,-14.018,1.1,,-6.913,0,,1
23,18,5,SAMP,0,0,0,,-31.585,-0.45,,-4.463,0.14,,1
20,19,6,SAMP,0,0,0,,-19.308,0.63,,-0.7,0.34,,1
19,20,7,SAMP,0,0,0,,-30.587,-0.36,,-6.335,0.04,,1
28,21,8,SAMP,0,0,0,,-29.951,-0.31,,-5.738,0.07,,1
53,22,9,SAMP,0,0,0,,-27.374,-0.08,,-6.5,0.03,,1
21,23,10,SAMP,0,0,0,,-27.765,-0.11,,0.484,0.41,,1
50,24,11,SAMP,0,0,0,,-26.603,-0.01,,-3.343,0.2,,1
40,25,12,SAMP,0,0,0,,-30.151,-0.33,,-4.876,0.12,,1
57,26,13,SAMP,0,0,0,,-24.625,0.16,,0,0,,1
1,27,14,SAMP,0,0,0,,4.42,2.73,,-4.811,0.12,,1
42,28,15,SAMP,0,0,0,,-14.308,1.08,,-4.435,0.14,,1
7,29,16,SAMP,0,0,0,,-28.536,-0.18,,-6.5,0.03,,1
68,30,17,SAMP,0,0,0,,-27.175,-0.06,,0,0,,1
61,31,18,SAMP,0,0,0,,-27.22,-0.07,,6.937,0.76,,1
69,32,19,SAMP,0,0,0,,1163.056,105.28,,-0.589,0.35,,1
14,33,20,SAMP,0,0,0,,-27.683,-0.11,,-5.628,0.07,,1
Baseline,34,0,BASL,0,0,0,,-26.476,0,,0,0,,1
Drift,35,921,DRIF,0,0,0,,496.879,46.32,,499.37,27.78,,1
Null,36,0,NULL,0,0,0,,-23.536,0.26,,-1.957,0.28,,1
74,37,21,SAMP,0,0,0,,-25.342,0.1,,0,0,,1
73,38,22,SAMP,0,0,0,,1184.96,107.22,,0,0,,1
83,39,23,SAMP,0,0,0,,-26.585,-0.01,,554.32,30.8,,1
25,40,24,SAMP,0,0,0,,-8.392,1.6,,-4.701,0.12,,1
86,41,25,SAMP,0,0,0,,-6.296,1.79,,-4.518,0.13,,1
67,42,26,SAMP,0,0,0,,-1.061,2.25,,0,0,,1
37,43,27,SAMP,0,0,0,,-12.158,1.27,,0,0,,1
5,44,28,SAMP,0,0,0,,-6.977,1.73,,0,0,,1
17,45,29,SAMP,0,0,0,,-27.347,-0.08,,0,0,,1
9,46,30,SAMP,0,0,0,,-20.977,0.49,,0,0,,1
13,47,31,SAMP,0,0,0,,-21.349,0.45,,0,0,,1
85,48,32,SAMP,0,0,0,,13.594,3.55,,0,0,,1
60,49,33,SAMP,0,0,0,,-25.623,0.08,,0,0,,1
55,50,34,SAMP,0,0,0,,29.627,4.97,,0,0,,1
16,51,35,SAMP,0,0,0,,-26.413,0.01,,0,0,,1
27,52,36,SAMP,0,0,0,,-23.917,0.23,,0,0,,1
66,53,37,SAMP,0,0,0,,-20.832,0.5,,0,0,,1
81,54,38,SAMP,0,0,0,,1.317,2.46,,0,0,,1
59,55,39,SAMP,0,0,0,,-25.641,0.07,,0,0,,1
26,56,40,SAMP,0,0,0,,-13.437,1.15,,-6.078,0.05,,1
Baseline,57,0,BASL,0,0,0,,-26.476,0,,0,0,,1
Drift,58,921,DRIF,0,0,0,,496.879,46.32,,499.37,27.78,,1
Null,59,0,NULL,0,0,0,,-26.848,-0.03,,-3.701,0.18,,1
49,60,41,SAMP,0,0,0,,-11.758,1.3,,0,0,,1
6,61,42,SAMP,0,0,0,,-10.461,1.42,,0,0,,1
56,62,43,SAMP,0,0,0,,221.518,21.95,,0,0,,1
54,63,44,SAMP,0,0,0,,-20.714,0.51,,0,0,,1
35,64,45,SAMP,0,0,0,,-12.357,1.25,,0,0,,1
75,65,46,SAMP,0,0,0,,-25.015,0.13,,0,0,,1
38,66,47,SAMP,0,0,0,,-25.179,0.11,,-1.599,0.3,,1
58,67,48,SAMP,0,0,0,,-24.453,0.18,,-4.6,0.13,,1
64,68,49,SAMP,0,0,0,,-25.741,0.07,,0,0,,1
10,69,50,SAMP,0,0,0,,-20.07,0.57,,-6.124,0.05,,1
30,70,51,SAMP,0,0,0,,-23.146,0.29,,-4.665,0.13,,1
32,71,52,SAMP,0,0,0,,-28.01,-0.14,,-4.132,0.16,,1
65,72,53,SAMP,0,0,0,,-24.208,0.2,,0,0,,1
24,73,54,SAMP,0,0,0,,-29.969,-0.31,,0.31,0.4,,1
2,74,55,SAMP,0,0,0,,-28.336,-0.16,,-3.499,0.19,,1
63,75,56,SAMP,0,0,0,,-25.033,0.13,,-4.756,0.12,,1
36,76,57,SAMP,0,0,0,,227.171,22.45,,-5.004,0.11,,1
84,77,58,SAMP,0,0,0,,80.984,9.51,,0.411,0.41,,1
72,78,59,SAMP,0,0,0,,-22.756,0.33,,-3.655,0.18,,1
51,79,60,SAMP,0,0,0,,-24.425,0.18,,-4.187,0.15,,1
Baseline,80,0,BASL,0,0,0,,-26.476,0,,0,0,,1
Drift,81,921,DRIF,0,0,0,,496.879,46.32,,499.37,27.78,,1
Null,82,0,NULL,0,0,0,,-30.505,-0.36,,-2.7,0.23,,1
62,83,61,SAMP,0,0,0,,-26.149,0.03,,0,0,,1
11,84,62,SAMP,0,0,0,,-13.591,1.14,,0,0,,1
22,85,63,SAMP,0,0,0,,-18.854,0.67,,-3.563,0.19,,1
8,86,64,SAMP,0,0,0,,-22.965,0.31,,-4.619,0.13,,1
34,87,65,SAMP,0,0,0,,-25.614,0.08,,-3.049,0.22,,1
12,88,66,SAMP,0,0,0,,-2.385,2.13,,-1.379,0.31,,1
3,89,67,SAMP,0,0,0,,-8.646,1.58,,-6.509,0.03,,1
52,90,68,SAMP,0,0,0,,-26.603,-0.01,,0,0,,1
4,91,69,SAMP,0,0,0,,-14.1,1.1,,0,0,,1
31,92,70,SAMP,0,0,0,,-25.56,0.08,,0,0,,1
15,93,71,SAMP,0,0,0,,-26.857,-0.03,,-5.757,0.07,,1
80,94,72,SAMP,0,0,0,,-23.745,0.24,,0,0,,1
82,95,73,SAMP,0,0,0,,-21.032,0.48,,0,0,,1
77,96,74,SAMP,0,0,0,,-21.186,0.47,,0,0,,1
29,97,75,SAMP,0,0,0,,32.068,5.18,,0,0,,1
33,98,76,SAMP,0,0,0,,-15.479,0.97,,0,0,,1
78,99,77,SAMP,0,0,0,,-19.29,0.64,,0,0,,1
79,100,78,SAMP,0,0,0,,222.471,22.03,,0,0,,1
70,101,79,SAMP,0,0,0,,-24.144,0.21,,0,0,,1
71,102,80,SAMP,0,0,0,,222.117,22,,0,0,,1
Drift,103,921,DRIF,0,0,0,,496.879,46.32,,499.37,27.78,,1
End,104,0,END ,0,0,0,,-26.476,0,,0,0,,1