No. ,Weight  [mg],Name  ,food,pop,Method  ,N  Area,C  Area,H  Area,S  Area,N  Factor,H  Factor,C  Factor,S  Factor,N  [%],C  [%],H  [%],S  [%],Moisture  [%],C/N  ratio,C/H  ratio,N  Blank,C  Blank,H  Blank,S  Blank,Prot.  Factor,Prot.  [%],Memo  ,Info  ,Date       Time  
9,9.99,LQ GH 6 Body,LQ,GH,plant,7839,46475,6834,393,0.9934,1.8881,0.9948,1.0208,5.96,49.09,4.783,0.836,0,8.233,10.2635,0,0,0,0,6.25,37.267,,Su,11.07.2022 18:37:10
10,10.37,"LQ.LOL.7 Body, liver, ovary",LQ,LOL,plant,7871,48999,8980,357,0.9934,1.8881,0.9948,1.0208,5.77,49.91,5.879,0.732,0,8.654,8.4909,0,0,0,0,6.25,36.048,,Su,11.07.2022 19:07:42
11,10.35,LQ GH 11 Body,LQ,GH,plant,9323,40834,9646,355,0.9934,1.8881,0.9948,1.0208,6.84,41.52,6.281,0.73,0,6.0725,6.6095,0,0,0,0,6.25,42.73,,Su,11.07.2022 19:19:41
12,9.94,LQ GH 1 Body,LQ,GH,plant,8944,42862,6577,302,0.9934,1.8881,0.9948,1.0208,6.83,45.43,4.646,0.646,0,6.6494,9.7763,0,0,0,0,6.25,42.697,,Su,11.07.2022 19:31:37
13,10.09,LQ LOL 1 Body,LQ,LOL,plant,9709,41514,8456,332,0.9934,1.8881,0.9948,1.0208,7.3,43.31,5.724,0.699,0,5.9324,7.5663,0,0,0,0,6.25,45.631,,Su,11.07.2022 19:43:33
14,10.37,"LQ.LOL.20 Body, liver, ovary",LQ,LOL,plant,9305,47067,9868,299,0.9934,1.8881,0.9948,1.0208,6.81,47.91,6.399,0.614,0,7.0348,7.4869,0,0,0,0,6.25,42.563,,Su,11.07.2022 19:55:25
15,10.09,"LQ.LOL.19 Body, liver, ovary",LQ,LOL,plant,4987,24960,9321,215,0.9934,1.8881,0.9948,1.0208,3.77,26.18,6.247,0.453,0,6.9465,4.1904,0,0,0,0,6.25,23.555,,Su,11.07.2022 20:07:18
16,9.96,"LQ.LOL.3 Body, liver, ovary",LQ,LOL,plant,9825,42679,6753,333,0.9934,1.8881,0.9948,1.0208,7.48,45.14,4.747,0.711,0,6.031,9.5091,0,0,0,0,6.25,46.776,,Su,11.07.2022 20:19:11
17,10.12,LQ GH 14 Body,LQ,GH,plant,10212,41761,8206,320,0.9934,1.8881,0.9948,1.0208,7.65,43.45,5.556,0.672,0,5.6761,7.8192,0,0,0,0,6.25,47.838,,Su,11.07.2022 20:31:06
18,9.93,LQLOL 2 Body,LQ,LOL,plant,8771,40416,8358,309,0.9934,1.8881,0.9948,1.0208,6.71,42.82,5.757,0.663,0,6.3845,7.4384,0,0,0,0,6.25,41.918,,Su,11.07.2022 20:43:04
19,9.89,LQ GH 18 Body,LQ,GH,plant,8164,36542,8863,265,0.9934,1.8881,0.9948,1.0208,6.27,39.12,6.092,0.57,0,6.238,6.4214,0,0,0,0,6.25,39.193,,Su,11.07.2022 20:55:02
20,10.44,LQ GH 4 Body,LQ,GH,plant,9274,47257,9108,255,0.9934,1.8881,0.9948,1.0208,6.74,47.78,5.914,0.519,0,7.0867,8.08,0,0,0,0,6.25,42.141,,Su,11.07.2022 21:06:57
21,9.97,"LQ.LOL.18 Body, liver, ovary",LQ,LOL,plant,8541,35909,7347,265,0.9934,1.8881,0.9948,1.0208,6.51,38.13,5.11,0.566,0,5.861,7.4615,0,0,0,0,6.25,40.663,,Su,11.07.2022 21:18:55
22,10.32,LQ GH 13 Body,LQ,GH,plant,9489,44127,7811,309,0.9934,1.8881,0.9948,1.0208,6.98,45.07,5.214,0.636,0,6.4591,8.6449,0,0,0,0,6.25,43.613,,Su,11.07.2022 21:30:49
23,10.23,LQ GH 2 Body,LQ,GH,plant,9443,44281,7671,273,0.9934,1.8881,0.9948,1.0208,7.01,45.63,5.176,0.567,0,6.5139,8.8164,0,0,0,0,6.25,43.782,,Su,11.07.2022 21:42:43
24,10.23,LQ GH 12 Body,LQ,GH,plant,8746,47256,8745,268,0.9934,1.8881,0.9948,1.0208,6.49,48.76,5.819,0.558,0,7.5115,8.3797,0,0,0,0,6.25,40.573,,Su,11.07.2022 21:54:38
25,10.06,"LQ.LOL.8 Body, liver, ovary",LQ,LOL,plant,9133,44981,8238,278,0.9934,1.8881,0.9948,1.0208,6.89,47.15,5.609,0.587,0,6.8423,8.4063,0,0,0,0,6.25,43.07,,Su,11.07.2022 22:06:37
26,10.27,LQ GH 9 Body,LQ,GH,plant,9230,47344,8825,271,0.9934,1.8881,0.9948,1.0208,6.82,48.66,5.844,0.561,0,7.1341,8.3271,0,0,0,0,6.25,42.634,,Su,11.07.2022 22:18:32
27,10.14,LQ GH 19 Body,LQ,GH,plant,9367,44186,7322,260,0.9934,1.8881,0.9948,1.0208,7.01,45.94,5.009,0.546,0,6.5521,9.1698,0,0,0,0,6.25,43.818,,Su,11.07.2022 22:30:25
28,9.91,LQ GH 10 Body,LQ,GH,plant,9968,43126,5757,326,0.9934,1.8881,0.9948,1.0208,7.63,45.85,4.146,0.699,0,6.0086,11.0582,0,0,0,0,6.25,47.692,,Su,11.07.2022 22:42:19
29,10.33,LQ GH 7 Body,LQ,GH,plant,8914,47355,9503,273,0.9934,1.8881,0.9948,1.0208,6.55,48.39,6.209,0.563,0,7.3867,7.7941,0,0,0,0,6.25,40.947,,Su,11.07.2022 22:54:13
30,10.12,LQ.LOL.16 body,LQ,LOL,plant,8213,49578,10093,269,0.9934,1.8881,0.9948,1.0208,6.17,51.76,6.691,0.566,0,8.3958,7.7362,0,0,0,0,6.25,38.534,,Su,11.07.2022 23:06:08
31,10.03,LQ.LOL.15 body,LQ,LOL,plant,9046,45398,8191,294,0.9934,1.8881,0.9948,1.0208,6.85,47.74,5.597,0.624,0,6.9728,8.5296,0,0,0,0,6.25,42.792,,Su,11.07.2022 23:18:04
32,10.39,LQ GH 20 Body,LQ,GH,plant,10504,44606,8113,293,0.9934,1.8881,0.9948,1.0208,7.67,45.27,5.357,0.6,0,5.9042,8.4494,0,0,0,0,6.25,47.917,,Su,11.07.2022 23:29:57
33,10.45,"LQ.LOL.4 Body, liver, ovary",LQ,LOL,plant,10556,42023,6227,355,0.9934,1.8881,0.9948,1.0208,7.66,42.34,4.212,0.724,0,5.5276,10.0538,0,0,0,0,6.25,47.878,,Su,11.07.2022 23:41:51
34,10.04,LQ GH 15 Body,LQ,GH,plant,9528,43751,7335,278,0.9934,1.8881,0.9948,1.0208,7.2,45.93,5.067,0.59,0,6.3771,9.0633,0,0,0,0,6.25,45.012,,Su,11.07.2022 23:53:46
35,10.36,"LQ.GH.8 Body, liver, ovary",LQ,GH,plant,10707,42637,7606,304,0.9934,1.8881,0.9948,1.0208,7.84,43.35,5.072,0.624,0,5.532,8.5472,0,0,0,0,6.25,48.977,,Su,12.07.2022 00:05:39
36,10.27,"LQ.LOL.12 Body, liver, ovary",LQ,LOL,plant,8955,46295,8206,287,0.9934,1.8881,0.9948,1.0208,6.62,47.57,5.475,0.595,0,7.1855,8.6875,0,0,0,0,6.25,41.373,,Su,12.07.2022 00:17:35
9,10.13,HQ LOL 14 body,HQ,LOL,plant,9360,41850,7096,356,0.991,1.8945,0.9925,1.0225,7,43.4,4.893,0.748,0,6.204,8.8693,0,0,0,0,6.25,43.721,,Su,12.07.2022 16:40:13
10,10.17,HQ GH 16 body,HQ,GH,plant,9083,43485,8375,316,0.991,1.8945,0.9925,1.0225,6.76,44.96,5.65,0.661,0,6.6473,7.9568,0,0,0,0,6.25,42.268,,Su,12.07.2022 16:52:08
11,10.32,HQ.LOL.12 body,HQ,LOL,plant,9946,45971,8000,329,0.991,1.8945,0.9925,1.0225,7.29,46.89,5.344,0.68,0,6.4288,8.7737,0,0,0,0,6.25,45.586,,Su,12.07.2022 17:04:01
12,10.32,HQ GH 3 body,HQ,GH,plant,8939,39940,8930,316,0.991,1.8945,0.9925,1.0225,6.56,40.61,5.898,0.653,0,6.1912,6.8862,0,0,0,0,6.25,40.998,,Su,12.07.2022 17:15:57
13,10.45,HQ GH 15 body,HQ,GH,plant,9542,44243,7970,337,0.991,1.8945,0.9925,1.0225,6.91,44.53,5.261,0.687,0,6.4423,8.4651,0,0,0,0,6.25,43.201,,Su,12.07.2022 17:27:57
14,10.09,HQ LOL 15 body,HQ,LOL,plant,10116,41265,6213,339,0.991,1.8945,0.9925,1.0225,7.59,42.95,4.368,0.717,0,5.6612,9.8324,0,0,0,0,6.25,47.416,,Su,12.07.2022 17:39:48
15,10.02,HQ GH 18 body,HQ,GH,plant,9173,45746,8376,290,0.991,1.8945,0.9925,1.0225,6.93,48.05,5.735,0.617,0,6.9316,8.3785,0,0,0,0,6.25,43.328,,Su,12.07.2022 17:51:44
16,10.23,HQ GH 11 body,HQ,GH,plant,9350,47507,8581,294,0.991,1.8945,0.9925,1.0225,6.92,48.92,5.741,0.613,0,7.069,8.521,0,0,0,0,6.25,43.249,,Su,12.07.2022 18:03:37
17,10.34,HQ GH 6 body,HQ,GH,plant,10523,41565,7263,327,0.991,1.8945,0.9925,1.0225,7.7,42.22,4.894,0.674,0,5.4842,8.6272,0,0,0,0,6.25,48.118,,Su,12.07.2022 18:15:33
18,10.02,HQ GH 1 body,HQ,GH,plant,10607,42867,7003,323,0.991,1.8945,0.9925,1.0225,8.01,44.97,4.89,0.687,0,5.6155,9.1963,0,0,0,0,6.25,50.047,,Su,12.07.2022 18:27:25
19,10.07,HQ.LOL.3 body,HQ,LOL,plant,9332,45118,8606,280,0.991,1.8945,0.9925,1.0225,7.02,47.14,5.847,0.593,0,6.7192,8.0632,0,0,0,0,6.25,43.852,,Su,12.07.2022 18:39:20
20,10.09,HQ.LOL.2 body,HQ,LOL,plant,9504,44710,7853,289,0.991,1.8945,0.9925,1.0225,7.13,46.62,5.376,0.611,0,6.5377,8.6708,0,0,0,0,6.25,44.565,,Su,12.07.2022 18:51:12
21,10.34,HQ GH 17 body,HQ,GH,plant,9981,45251,8349,321,0.991,1.8945,0.9925,1.0225,7.3,46.05,5.541,0.661,0,6.3042,8.3104,0,0,0,0,6.25,45.655,,Su,12.07.2022 19:03:04
22,9.99,HQ LOL 8 body,HQ,LOL,plant,9125,42993,8207,299,0.991,1.8945,0.9925,1.0225,6.92,45.24,5.648,0.639,0,6.5406,8.0092,0,0,0,0,6.25,43.228,,Su,12.07.2022 19:14:56
23,10.16,HQ LOL 11 body,HQ,LOL,plant,7728,45416,9610,258,0.991,1.8945,0.9925,1.0225,5.77,47.04,6.399,0.541,0,8.158,7.3516,0,0,0,0,6.25,36.04,,Su,12.07.2022 19:26:48
24,10.33,HQ LOL 1  body,HQ,LOL,plant,8991,45926,8586,288,0.991,1.8945,0.9925,1.0225,6.59,46.8,5.688,0.595,0,7.0999,8.2281,0,0,0,0,6.25,41.196,,Su,12.07.2022 19:38:38
25,8.22,HQ GH 10 body,HQ,GH,plant,7979,35456,5219,253,0.991,1.8945,0.9925,1.0225,7.36,45.56,4.605,0.657,0,6.1929,9.8943,0,0,0,0,6.25,45.982,,Su,12.07.2022 19:50:33
26,10.23,HQ.LOL.10 body,HQ,LOL,plant,10349,43876,7115,304,0.991,1.8945,0.9925,1.0225,7.65,45.1,4.857,0.633,0,5.8927,9.2862,0,0,0,0,6.25,47.838,,Su,12.07.2022 20:02:29
27,10.3,HQ GH 5 body,HQ,GH,plant,9889,42302,7076,310,0.991,1.8945,0.9925,1.0225,7.27,43.16,4.8,0.642,0,5.9391,8.9899,0,0,0,0,6.25,45.414,,Su,12.07.2022 20:14:27
28,10,HQ LOL 16 body,HQ,LOL,plant,8427,44856,7431,259,0.991,1.8945,0.9925,1.0225,6.38,47.19,5.164,0.553,0,7.3915,9.1386,0,0,0,0,6.25,39.905,,Su,12.07.2022 20:26:23
29,10.22,HQ LOL 5 Body,HQ,LOL,plant,10129,39533,5839,295,0.991,1.8945,0.9925,1.0225,7.5,40.58,4.084,0.615,0,5.4112,9.9368,0,0,0,0,6.25,46.873,,Su,12.07.2022 20:38:22
30,10.03,HQ LOL 18 body,HQ,LOL,plant,10091,42185,6840,299,0.991,1.8945,0.9925,1.0225,7.61,44.19,4.784,0.635,0,5.8048,9.2372,0,0,0,0,6.25,47.58,,Su,12.07.2022 20:50:17
31,10.27,HQ GH 8 body,HQ,GH,plant,9743,46037,7519,278,0.991,1.8945,0.9925,1.0225,7.18,47.19,5.081,0.576,0,6.5714,9.2867,0,0,0,0,6.25,44.88,,Su,12.07.2022 21:02:14
32,10.23,HQ GH 4 Body,HQ,GH,plant,9683,45798,7119,274,0.991,1.8945,0.9925,1.0225,7.16,47.12,4.859,0.57,0,6.577,9.697,0,0,0,0,6.25,44.779,,Su,12.07.2022 21:14:11
33,10.29,HQ GH 12 body,HQ,GH,plant,8817,49555,8785,247,0.991,1.8945,0.9925,1.0225,6.49,50.77,5.828,0.512,0,7.8228,8.7107,0,0,0,0,6.25,40.562,,Su,12.07.2022 21:26:03
35,10.25,HQGH12 body (p),HQ,GH,plant,8683,50035,8665,248,0.991,1.8945,0.9925,1.0225,6.42,51.47,5.78,0.516,0,8.0206,8.9056,0,0,0,0,6.25,40.108,,Su,12.07.2022 21:49:59
36,9.3,HQ.LOL.4 body,HQ,LOL,plant,9387,36956,5538,287,0.991,1.8945,0.9925,1.0225,7.64,41.98,4.285,0.658,0,5.4932,9.7953,0,0,0,0,6.25,47.759,,Su,12.07.2022 22:01:58
37,10.12,HQ GH 19 Body,HQ,GH,plant,8559,48003,7440,225,0.991,1.8945,0.9925,1.0225,6.41,49.97,5.109,0.475,0,7.8,9.7822,0,0,0,0,6.25,40.043,,Su,12.07.2022 22:13:52