ID,date,time1,vial1,vol1,time2,vial2,vol2,length,length2,SRP_before,SRP_after,NH4_before,NH4_after,time_elapsed,Notes
HQ.LOL.1,9-Dec,8:46,95,22,9:07,104,20,19.93,21.92,0,0.04,2.1,3.2,0:21,all lengths from pre-experiment sheet
HQ.LOL.2,9-Dec,8:47,96,21.5,9:08,102,20,18.6,19.89,0.07,-0.04,2.15,2.2,0:21,
HQ.LOL.3,9-Dec,8:49,97,22.5,9:10,91,20,18.3,20.8,0.04,0.11,2.05,2.09,0:21,
HQ.LOL.4,9-Dec,8:51,98,19.5,9:12,87,20,18.1,21.14,0.03,0.06,2.17,2.21,0:21,
HQ.LOL.5,9-Dec,8:53,105,22,9:14,93,20,19.66,21.35,-0.23,-0.17,0.61,0.68,0:21,
HQ.LOL.6,9-Dec,8:55,100,21,9:16,89,20,18.84,,-0.31,-0.21,0.23,0.31,0:21,
HQ.LOL.7,9-Dec,,,,,,,,,,,,,0,
HQ.LOL.8,9-Dec,8:57,101,22,9:18,92,20,18.46,20.44,-0.06,-0.09,0.37,0.5,0:21,
HQ.LOL.9,9-Dec,,,,,,,,,,,,,0,
HQ.LOL.10,7-Dec,10:08 AM,73,21.5,10:42 AM,69,20,20.78,22.87,108.19,105.86,-0.09,0.16,0:24,
HQ.LOL.11,7-Dec,10:10 AM,65,23,10:44 AM,78,21,18.91,21.31,0.18,0.54,-0.04,-0.2,0:24,
HQ.LOL.12,7-Dec,10:12 AM,64,21,10:47 AM,80,21,18.67,20.58,0.07,0.26,-0.08,-0.09,0:25,
HQ.LOL.13,7-Dec,10:14 AM,68,20,10:49 AM,82,21,19.27,,0,0.22,-0.14,-0.15,0:25,
HQ.LOL.14,7-Dec,10:16 AM,63,21,10:51 AM,76,19.5,18.46,21.09,0.14,-0.1,0.05,-0.02,0:25,
HQ.LOL.15,7-Dec,10:18 AM,67,21,10:52 AM,81,21,19.73,21.65,2.29,2.47,-0.08,-0.1,0:24,
HQ.LOL.16,7-Dec,10:20 AM,71,20,10:54 AM,79,20,19.76,21.4,22.94,22.96,-0.19,-0.17,0:24,
HQ.LOL.17,7-Dec,10:22 AM,72,21.5,10:56 AM,75,21,17.93,20.56,0.43,0.14,0.08,-0.07,0:24,
HQ.LOL.18,7-Dec,10:24 AM,70,22,10:58 AM,77,21,19.39,21.52,0.53,0.46,-0.22,-0.13,0:24,
HQ.LOL.19,7-Dec,10:07 AM,74,20,10:41 AM,66,21,17.83,20.29,0.1,0.45,-0.11,-0.1,0:24,
HQ.LOL.20,9-Dec,,,,,,,,,,,,,0,
LQ.LOL.1,7-Dec,12:16,85,22,12:39,8,20,19.23,21.01,3.59,-0.11,-0.04,0.06,0:23,
LQ.LOL.2,7-Dec,12:19,83,20,12:41,11,19,18.24,19.41,1.68,1.21,14.17,0,0:22,
LQ.LOL.3,7-Dec,12:21,84,21,12:43,7,20,19.35,20.74,9.97,0.01,0.19,0.01,0:22,
LQ.LOL.4,7-Dec,12:23,13,22,12:45,10,19,19.85,20.69,0.45,0.55,-0.11,0.01,0:22,
LQ.LOL.5,7-Dec,12:25,5,22,12:47,6,21,19.63,,1.76,1.4,-0.09,-0.05,0:22,
LQ.LOL.6,7-Dec,12:27,1,20,12:50,9,20,18.31,,2.72,0.47,0.05,-0.06,0:23,
LQ.LOL.7,7-Dec,12:28,4,19.5,12:51,42,19,17.98,20.75,1.17,1.11,0,0.06,0:23,
LQ.LOL.8,7-Dec,12:31,3,21,12:53,43,20,16.87,21.4,1.7,1.06,0.01,0,0:22,
LQ.LOL.9,7-Dec,12:33,2,21,12:55,41,21,19.4,,-0.19,-0.62,0.09,0.15,0:22,
LQ.LOL.10,9-Dec,,,,,,,,,,,,,0,
LQ.LOL.11,9-Dec,,,,,,,,,,,,,0,
LQ.LOL.12,9-Dec,10:14,148,19,10:34,113,20,19.86,20.07,0.22,0.15,3.6,4.07,0:20,
LQ.LOL.13,9-Dec,10:15,149,19,10:35,120,20,20.39,,0.16,0.19,3.98,4.11,0:20,
LQ.LOL.14,9-Dec,10:18,144,19,10:40,117,20,18.43,,0.15,0.29,3.7,4.08,0:22,
LQ.LOL.15,9-Dec,10:20,160,20,10:42,123,20,18.45,20.64,0.2,0.14,4.01,4.26,0:22,
LQ.LOL.16,9-Dec,10:22,127,19,10:44,155,20,18.49,21.1,0.33,0.12,3.86,4.09,0:22,
LQ.LOL.17,9-Dec,10:23,132,19,10:47,139,19,17.61,,0.04,0.31,3.91,4.19,0:24,
LQ.LOL.18,9-Dec,10:26,111,20,10:49,129,21,19.71,21.36,0.19,0.25,3.91,4.43,0:23,
LQ.LOL.19,7-Dec,10:32,61,20,11:00,32,21,19.14,21.61,-0.05,0.17,0.35,0.07,0:28,
LQ.LOL.20,9-Dec,8:59,99,20,9:19,103,21,18.58,20.94,-0.03,-0.09,0.42,0.45,0:20,
HQ.GH.1,9-Dec,10:17,146,19.5,10:39,125,20,18.63,21.6,0.01,0.16,2.99,3.41,0:22,
HQ.GH.2,9-Dec,10:17,119,20,10:39,108,20.5,17.8,,0.09,0.48,3.5,3.99,0:22,
HQ.GH.3,9-Dec,10:20,150,20.5,10:41,124,21,20.32,21.99,0.11,0.02,3.13,3.44,0:21,
HQ.GH.4,9-Dec,10:22,107,20,10:44,114,19,19.42,20.61,0.13,0.2,3.8,4.07,0:22,
HQ.GH.5,9-Dec,10:24,121,20,10:46,116,20,17.85,20.48,0.27,0.07,3.51,4.11,0:22,
HQ.GH.6,9-Dec,10:26,109,21.5,10:48,152,20,18.74,20.11,0.16,0.11,3.68,3.98,0:22,
HQ.GH.7,9-Dec,10:27,115,22,10:50,134,20,17.37,,0.15,0.28,3.88,4.39,0:23,
HQ.GH.8,9-Dec,10:29,126,20.5,10:53,106,20,18.19,21.85,0.18,0.19,4.01,4.23,0:24,
HQ.GH.9,9-Dec,,,,,,,,,,,,,0,
HQ.GH.10,7-Dec,12:18,30,21,12:40,50,20,16.68,17.61,0.15,-0.04,0.06,0.09,0:22,
HQ.GH.11,7-Dec,12:19,27,21,12:40,40,21,19.04,21.64,0.21,-0.33,-0.06,0.05,0:21,
HQ.GH.12,7-Dec,12:21,35,21,12:42,49,21,16.9,20.5,1.23,1.43,-0.06,-0.08,0:21,
HQ.GH.13,7-Dec,12:23,37,20,12:45:00,25,21,16.67,,1.37,1.6,-0.11,0.02,0:22:00,
HQ.GH.14,7-Dec,12:25,14,20.5,12:47,20,21,17.9,,1.57,0.6,0.03,0.16,0:22,
HQ.GH.15,7-Dec,12:26,17,21.5,12:49,21,20.5,19.66,21.42,-0.02,-0.14,-0.03,0.19,0:23,
HQ.GH.16,7-Dec,12:28,26,21,12:51,22,20,19.13,21.91,1.09,0.72,0.01,0.09,0:23,
HQ.GH.17,7-Dec,12:30,16,20,12:53,23,21,17.06,19.69,0.04,-0.6,-0.13,0.06,0:23,
HQ.GH.18,7-Dec,12:32,15,21.5,12:55,18,21,19.64,21.81,0.06,-0.59,0.03,0.11,0:23,
HQ.GH.19,7-Dec,12:34,19,21,12:57,24,20,17.01,22.06,-0.29,-0.26,0.02,0.18,0:23,
HQ.GH.20,9-Dec,10:28,118,19,10:52,122,20,16.7,,0.07,0.23,3.69,4.26,0:24,
LQ.GH.1,7-Dec,10:13,52,20,10:43,60,20,19.89,20.84,0,0.25,-0.13,-0.09,0:30,
LQ.GH.2,7-Dec,10:14,62,21,10:43,59,20.5,18.97,21.36,-0.05,0.06,-0.12,-0.1,0:29,
LQ.GH.3,7-Dec,10:17,54,20.5,10:46,33,23,16.94,,0.81,1.06,-0.14,-0.16,0:29,
LQ.GH.4,7-Dec,10:19,56,21,10:48,36,21.5,18.94,21.1,22.21,22.74,-0.11,0.05,0:29,
LQ.GH.5,7-Dec,10:21,51,20.5,10:50,34,21,19.04,,0.29,0.07,0.07,0.1,0:29,
LQ.GH.6,7-Dec,10:23,53,21,10:52,28,20.5,18.43,20.59,-0.11,-0.28,0.01,0.03,0:29,
LQ.GH.7,7-Dec,10:26,57,20,10:54,38,21,17.83,20.99,0.01,0.06,-0.01,0.13,0:28,
LQ.GH.8,7-Dec,10:28,58,21,10:56,31,21,17.26,20.14,0.14,0.09,0.05,-0.03,0:28,
LQ.GH.9,7-Dec,10:30,55,20.5,10:58,29,21.5,16.44,18.92,4.98,5.4,-0.14,-0.09,0:28,
LQ.GH.10,9-Dec,8:59,90,20,9:19,157,19,16.53,19.55,-0.01,0.01,2.08,2.32,0:20,
LQ.GH.11,9-Dec,8:57,39,21,9:17,141,20,18.27,20.23,0.15,0.03,2.01,2.26,0:20,
LQ.GH.12,9-Dec,8:55,47,21,9:15,110,20,20.86,22.51,-0.01,0.02,1.95,2.08,0:20,
LQ.GH.13,9-Dec,8:53,48,19,9:13,156,21,17.82,19.28,0,0.01,0.35,0.31,0:20,
LQ.GH.14,9-Dec,8:51,45,20.5,9:11,143,21,22.45,22.6,-0.12,-0.49,0.36,0.19,0:20,
LQ.GH.15,9-Dec,8:49,44,20,9:09,158,19,18.08,20.53,0.03,-0.09,2.07,2.16,0:20,
LQ.GH.16,9-Dec,8:48,46,21,9:08,145,20,17.63,,-0.06,-0.03,2.02,2.18,0:20,
LQ.GH.17,9-Dec,8:45,159,20,9:05,147,20,18.65,,-0.19,-0.06,-0.19,0.3,0:20,
LQ.GH.18,9-Dec,8:44,151,20,9:04,140,19,18.68,21.21,-0.12,0.04,0.36,0.44,0:20,
LQ.GH.19,7-Dec,12:16,86,21,12:38,12,20,16.38,20.19,1.8,1.2,0.06,0.14,0:22,
LQ.GH.20,9-Dec,9:00,94,22,9:22,88,20,19.5,21.12,-0.1,-0.18,0.39,0.42,0:22,