﻿ANAL,SRP&Ammonia.ANL,,,,,,,,,,,,,
RUN ,LQHQ012622R1R1.RUN,,,,,,,,,,,,,
DATE,1/26/2022,,,,,,,,,,,,,
TIME,2:21:27 PM,,,,,,,,,,,,,
OPER,FS,,,,,,,,,,,,,
COMM,Recalculate from RunLQHQ012622R1.run,,,,,,,,,,,,,
TYPE,,,,,,,,Real,,,Real,,,Data
CHAN,,,,,,,,1,,,2,,,2
METH,,,,,,,,SRP,,,NH4,,,Dilution
UNIT,,,,,,,,µg/L,,,µg/L,,,
Base,,,,,,,,-7125,,,-5331,,,
Gain,,,,,,,,172,,,422,,,
FIT,,,,,,,,L,,,L,,,
COEFF,,,,,,,,0.9999,,,0.9998,,,
Sample ID,Peak Number,Cup Number,Cup Type,Cup Group,,,Calibrants 1,Results 1, mAU,Calibrants 2,Results 2, mAU,,Results 2
Primer,1,921,PRIM,0,0,0,,493.322,13.42,,495.375,9.21,,1
Drift,2,921,DRIF,0,0,0,,496.126,13.5,,493.197,9.17,,1
Cal,3,921,CALB,0,0,0,500,493.485,13.43,500,499.363,9.28,,1
Cal.,4,901,CALB,0,0,0,100,102.544,2.79,100,186.133,3.46,,1
Cal.,5,902,CALB,0,0,0,50,50.213,1.37,50,67.556,1.26,,1
Cal.,6,903,CALB,0,0,0,25,25.987,0.71,25,40.634,0.76,,1
Cal.,7,904,CALB,0,0,0,10,11.673,0.32,10,20.813,0.39,,1
Cal.,8,905,CALB,0,0,0,1,2.119,0.06,1,-0.759,-0.01,,1
High,9,921,HIGH,0,1,1,,496.615,13.51,,490.59,9.12,,1
Low,10,905,LOW ,0,1,2,,1.663,0.05,,2.782,0.05,,1
Low,11,905,LOW ,0,1,3,,2.706,0.07,,2.782,0.05,,1
Drift,12,921,DRIF,0,0,0,,496.126,13.5,,493.197,9.17,,1
Baseline,13,0,BASL,0,0,0,,0,0,,0,0,,1
31,14,1,SAMP,0,0,0,,2.674,0.07,,10.348,0.19,,1
130,15,2,SAMP,0,0,0,,2.608,0.07,,9.843,0.18,,1
102,16,3,SAMP,0,0,0,,0.033,0,,16.884,0.31,,1
80,17,4,SAMP,0,0,0,,0.326,0.01,,11.749,0.22,,1
97,18,5,SAMP,0,0,0,,1.989,0.05,,13.033,0.24,,1
7,19,6,SAMP,0,0,0,,5.706,0.16,,10.446,0.19,,1
98,20,7,SAMP,0,0,0,,3.293,0.09,,13.499,0.25,,1
103,21,8,SAMP,0,0,0,,1.989,0.05,,12.877,0.24,,1
75,22,9,SAMP,0,0,0,,3,0.08,,13.247,0.25,,1
118,23,10,SAMP,0,0,0,,2.674,0.07,,24.529,0.46,,1
112,24,11,SAMP,0,0,0,,4.108,0.11,,23.867,0.44,,1
107,25,12,SAMP,0,0,0,,1.565,0.04,,15.133,0.28,,1
50,26,13,SAMP,0,0,0,,0.424,0.01,,10.018,0.19,,1
116,27,14,SAMP,0,0,0,,1.076,0.03,,14.141,0.26,,1
32,28,15,SAMP,0,0,0,,-0.13,0,,8.17,0.15,,1
82,29,16,SAMP,0,0,0,,1.174,0.03,,15.775,0.29,,1
121,30,17,SAMP,0,0,0,,0.717,0.02,,15.289,0.28,,1
90,31,18,SAMP,0,0,0,,1.206,0.03,,11.788,0.22,,1
62,32,19,SAMP,0,0,0,,1.565,0.04,,14.705,0.27,,1
65,33,20,SAMP,0,0,0,,0.13,0,,7.722,0.14,,1
Baseline,34,0,BASL,0,0,0,,0,0,,0,0,,1
Drift,35,921,DRIF,0,0,0,,496.126,13.5,,493.197,9.17,,1
Null,36,0,NULL,0,0,0,,3.326,0.09,,4.591,0.09,,1
96,37,21,SAMP,0,0,0,,1.141,0.03,,21.008,0.39,,1
69,38,22,SAMP,0,0,0,,1.369,0.04,,11.087,0.21,,1
110,39,23,SAMP,0,0,0,,0.783,0.02,,13.869,0.26,,1
120,40,24,SAMP,0,0,0,,2.902,0.08,,23.089,0.43,,1
59,41,25,SAMP,0,0,0,,0.261,0.01,,11.574,0.22,,1
67,42,26,SAMP,0,0,0,,1.5,0.04,,14.141,0.26,,1
104,43,27,SAMP,0,0,0,,1.891,0.05,,13.48,0.25,,1
73,44,28,SAMP,0,0,0,,0.75,0.02,,12.916,0.24,,1
117,45,29,SAMP,0,0,0,,-1.369,-0.04,,31.57,0.59,,1
88,46,30,SAMP,0,0,0,,0.13,0,,9.959,0.19,,1
125,47,31,SAMP,0,0,0,,2.413,0.07,,22.311,0.41,,1
115,48,32,SAMP,0,0,0,,1.109,0.03,,22.155,0.41,,1
70,49,33,SAMP,0,0,0,,1.956,0.05,,20.035,0.37,,1
91,50,34,SAMP,0,0,0,,2.771,0.08,,16.087,0.3,,1
109,51,35,SAMP,0,0,0,,1.695,0.05,,10.912,0.2,,1
105,52,36,SAMP,0,0,0,,0.228,0.01,,10.737,0.2,,1
79,53,37,SAMP,0,0,0,,2.934,0.08,,6.614,0.12,,1
71,54,38,SAMP,0,0,0,,0.359,0.01,,15.289,0.28,,1
72,55,39,SAMP,0,0,0,,0.815,0.02,,13.947,0.26,,1
128,56,40,SAMP,0,0,0,,2.315,0.06,,15.328,0.28,,1
Baseline,57,0,BASL,0,0,0,,0,0,,0,0,,1
Drift,58,921,DRIF,0,0,0,,496.126,13.5,,493.197,9.17,,1
Null,59,0,NULL,0,0,0,,0.75,0.02,,-0.642,-0.01,,1
124,60,41,SAMP,0,0,0,,1.435,0.04,,14.939,0.28,,1
8,61,42,SAMP,0,0,0,,2.739,0.07,,11.963,0.22,,1
74,62,43,SAMP,0,0,0,,2.38,0.06,,11.438,0.21,,1
92,63,44,SAMP,0,0,0,,2.511,0.07,,9.765,0.18,,1
93,64,45,SAMP,0,0,0,,5.249,0.14,,12.099,0.22,,1
16,65,46,SAMP,0,0,0,,2.282,0.06,,7.236,0.13,,1
129,66,47,SAMP,0,0,0,,2.576,0.07,,13.422,0.25,,1
114,67,48,SAMP,0,0,0,,2.185,0.06,,14.764,0.27,,1
126,68,49,SAMP,0,0,0,,3.521,0.1,,21.086,0.39,,1
101,69,50,SAMP,0,0,0,,1.826,0.05,,20.988,0.39,,1
6,70,51,SAMP,0,0,0,,2.152,0.06,,12.235,0.23,,1
61,71,52,SAMP,0,0,0,,4.434,0.12,,17.682,0.33,,1
119,72,53,SAMP,0,0,0,,3.163,0.09,,27.835,0.52,,1
44,73,54,SAMP,0,0,0,,0.88,0.02,,17.487,0.33,,1
85,74,55,SAMP,0,0,0,,0.293,0.01,,12.255,0.23,,1
127,75,56,SAMP,0,0,0,,2.902,0.08,,20.949,0.39,,1
60,76,57,SAMP,0,0,0,,-0.196,-0.01,,26.357,0.49,,1
122,77,58,SAMP,0,0,0,,1.304,0.04,,21.727,0.4,,1
46,78,59,SAMP,0,0,0,,-0.554,-0.02,,11.457,0.21,,1
87,79,60,SAMP,0,0,0,,0.717,0.02,,20.483,0.38,,1
45,80,61,SAMP,0,0,0,,2.119,0.06,,13.616,0.25,,1
86,81,62,SAMP,0,0,0,,2.739,0.07,,16.203,0.3,,1
83,82,63,SAMP,0,0,0,,1.369,0.04,,15.056,0.28,,1
111,83,64,SAMP,0,0,0,,0.522,0.01,,11.204,0.21,,1
77,84,65,SAMP,0,0,0,,2.576,0.07,,15.639,0.29,,1
99,85,66,SAMP,0,0,0,,1.239,0.03,,20.385,0.38,,1
Drift,86,921,DRIF,0,0,0,,496.126,13.5,,513.407,9.54,,1
End,87,0,END ,0,0,0,,0,0,,0,0,,1